<?xml version="1.0" encoding="UTF-8" standalone="no"?>
<svg
   xmlns:dc="http://purl.org/dc/elements/1.1/"
   xmlns:cc="http://creativecommons.org/ns#"
   xmlns:rdf="http://www.w3.org/1999/02/22-rdf-syntax-ns#"
   xmlns:svg="http://www.w3.org/2000/svg"
   xmlns="http://www.w3.org/2000/svg"
   xmlns:sodipodi="http://sodipodi.sourceforge.net/DTD/sodipodi-0.dtd"
   xmlns:inkscape="http://www.inkscape.org/namespaces/inkscape"
   width="244.5453mm"
   height="119.14536mm"
   viewBox="0 0 244.54531 119.14535"
   version="1.1"
   id="svg8"
   inkscape:version="1.0.1 (3bc2e813f5, 2020-09-07)"
   sodipodi:docname="reproducible_flow_1.svg"
   inkscape:export-filename="/home/dickoa/HDX/projects/courses/reproducible-humanitarian-workflow/images/reproducibleFlow.png"
   inkscape:export-xdpi="141.25674"
   inkscape:export-ydpi="141.25674">
  <defs
     id="defs2">
    <marker
       inkscape:stockid="Arrow1Mend"
       orient="auto"
       refY="0"
       refX="0"
       id="marker2597"
       style="overflow:visible"
       inkscape:isstock="true">
      <path
         id="path2595"
         d="M 0,0 5,-5 -12.5,0 5,5 Z"
         style="fill:#000000;fill-opacity:1;fill-rule:evenodd;stroke:#000000;stroke-width:1pt;stroke-opacity:1"
         transform="matrix(-0.4,0,0,-0.4,-4,0)" />
    </marker>
    <marker
       inkscape:stockid="Arrow1Mend"
       orient="auto"
       refY="0"
       refX="0"
       id="marker2497"
       style="overflow:visible"
       inkscape:isstock="true">
      <path
         id="path2495"
         d="M 0,0 5,-5 -12.5,0 5,5 Z"
         style="fill:#000000;fill-opacity:1;fill-rule:evenodd;stroke:#000000;stroke-width:1pt;stroke-opacity:1"
         transform="matrix(-0.4,0,0,-0.4,-4,0)" />
    </marker>
    <marker
       inkscape:isstock="true"
       style="overflow:visible"
       id="marker2927"
       refX="0"
       refY="0"
       orient="auto"
       inkscape:stockid="Arrow1Mstart">
      <path
         transform="matrix(0.4,0,0,0.4,4,0)"
         style="fill:#000000;fill-opacity:1;fill-rule:evenodd;stroke:#000000;stroke-width:1pt;stroke-opacity:1"
         d="M 0,0 5,-5 -12.5,0 5,5 Z"
         id="path2925" />
    </marker>
    <marker
       inkscape:stockid="Arrow1Mend"
       orient="auto"
       refY="0"
       refX="0"
       id="marker2115"
       style="overflow:visible"
       inkscape:isstock="true">
      <path
         id="path2113"
         d="M 0,0 5,-5 -12.5,0 5,5 Z"
         style="fill:#000000;fill-opacity:1;fill-rule:evenodd;stroke:#000000;stroke-width:1pt;stroke-opacity:1"
         transform="matrix(-0.4,0,0,-0.4,-4,0)" />
    </marker>
    <marker
       inkscape:stockid="Arrow1Mstart"
       orient="auto"
       refY="0"
       refX="0"
       id="marker1603"
       style="overflow:visible"
       inkscape:isstock="true">
      <path
         id="path1601"
         d="M 0,0 5,-5 -12.5,0 5,5 Z"
         style="fill:#000000;fill-opacity:1;fill-rule:evenodd;stroke:#000000;stroke-width:1pt;stroke-opacity:1"
         transform="matrix(0.4,0,0,0.4,4,0)" />
    </marker>
    <marker
       inkscape:stockid="Arrow1Mend"
       orient="auto"
       refY="0"
       refX="0"
       id="marker1569"
       style="overflow:visible"
       inkscape:isstock="true">
      <path
         id="path1567"
         d="M 0,0 5,-5 -12.5,0 5,5 Z"
         style="fill:#000000;fill-opacity:1;fill-rule:evenodd;stroke:#000000;stroke-width:1pt;stroke-opacity:1"
         transform="matrix(-0.4,0,0,-0.4,-4,0)" />
    </marker>
    <marker
       inkscape:stockid="Arrow1Mend"
       orient="auto"
       refY="0"
       refX="0"
       id="marker1569-3"
       style="overflow:visible"
       inkscape:isstock="true">
      <path
         id="path1567-6"
         d="M 0,0 5,-5 -12.5,0 5,5 Z"
         style="fill:#000000;fill-opacity:1;fill-rule:evenodd;stroke:#000000;stroke-width:1pt;stroke-opacity:1"
         transform="matrix(-0.4,0,0,-0.4,-4,0)" />
    </marker>
    <marker
       inkscape:stockid="Arrow1Mend"
       orient="auto"
       refY="0"
       refX="0"
       id="marker1569-3-7"
       style="overflow:visible"
       inkscape:isstock="true">
      <path
         id="path1567-6-5"
         d="M 0,0 5,-5 -12.5,0 5,5 Z"
         style="fill:#000000;fill-opacity:1;fill-rule:evenodd;stroke:#000000;stroke-width:1pt;stroke-opacity:1"
         transform="matrix(-0.4,0,0,-0.4,-4,0)" />
    </marker>
    <marker
       inkscape:stockid="Arrow1Mend"
       orient="auto"
       refY="0"
       refX="0"
       id="marker1569-3-5"
       style="overflow:visible"
       inkscape:isstock="true">
      <path
         id="path1567-6-6"
         d="M 0,0 5,-5 -12.5,0 5,5 Z"
         style="fill:#000000;fill-opacity:1;fill-rule:evenodd;stroke:#000000;stroke-width:1pt;stroke-opacity:1"
         transform="matrix(-0.4,0,0,-0.4,-4,0)" />
    </marker>
    <marker
       inkscape:stockid="Arrow1Mend"
       orient="auto"
       refY="0"
       refX="0"
       id="marker1569-3-7-9"
       style="overflow:visible"
       inkscape:isstock="true">
      <path
         id="path1567-6-5-1"
         d="M 0,0 5,-5 -12.5,0 5,5 Z"
         style="fill:#000000;fill-opacity:1;fill-rule:evenodd;stroke:#000000;stroke-width:1pt;stroke-opacity:1"
         transform="matrix(-0.4,0,0,-0.4,-4,0)" />
    </marker>
    <marker
       inkscape:stockid="Arrow1Mend"
       orient="auto"
       refY="0"
       refX="0"
       id="marker1569-3-70"
       style="overflow:visible"
       inkscape:isstock="true">
      <path
         id="path1567-6-9"
         d="M 0,0 5,-5 -12.5,0 5,5 Z"
         style="fill:#000000;fill-opacity:1;fill-rule:evenodd;stroke:#000000;stroke-width:1pt;stroke-opacity:1"
         transform="matrix(-0.4,0,0,-0.4,-4,0)" />
    </marker>
    <marker
       inkscape:stockid="Arrow1Mend"
       orient="auto"
       refY="0"
       refX="0"
       id="marker1569-3-70-0"
       style="overflow:visible"
       inkscape:isstock="true">
      <path
         id="path1567-6-9-6"
         d="M 0,0 5,-5 -12.5,0 5,5 Z"
         style="fill:#000000;fill-opacity:1;fill-rule:evenodd;stroke:#000000;stroke-width:1pt;stroke-opacity:1"
         transform="matrix(-0.4,0,0,-0.4,-4,0)" />
    </marker>
    <marker
       inkscape:stockid="Arrow1Mend"
       orient="auto"
       refY="0"
       refX="0"
       id="marker1569-3-70-0-8"
       style="overflow:visible"
       inkscape:isstock="true">
      <path
         id="path1567-6-9-6-7"
         d="M 0,0 5,-5 -12.5,0 5,5 Z"
         style="fill:#000000;fill-opacity:1;fill-rule:evenodd;stroke:#000000;stroke-width:1pt;stroke-opacity:1"
         transform="matrix(-0.4,0,0,-0.4,-4,0)" />
    </marker>
    <marker
       inkscape:stockid="Arrow1Mend"
       orient="auto"
       refY="0"
       refX="0"
       id="marker1569-3-70-6-3"
       style="overflow:visible"
       inkscape:isstock="true">
      <path
         id="path1567-6-9-1-7"
         d="M 0,0 5,-5 -12.5,0 5,5 Z"
         style="fill:#000000;fill-opacity:1;fill-rule:evenodd;stroke:#000000;stroke-width:1pt;stroke-opacity:1"
         transform="matrix(-0.4,0,0,-0.4,-4,0)" />
    </marker>
  </defs>
  <sodipodi:namedview
     id="base"
     pagecolor="#ffffff"
     bordercolor="#666666"
     borderopacity="1.0"
     inkscape:pageopacity="0.0"
     inkscape:pageshadow="2"
     inkscape:zoom="1.0560513"
     inkscape:cx="254.83943"
     inkscape:cy="353.65358"
     inkscape:document-units="mm"
     inkscape:current-layer="layer1"
     showgrid="false"
     inkscape:window-width="1280"
     inkscape:window-height="1402"
     inkscape:window-x="1280"
     inkscape:window-y="0"
     inkscape:window-maximized="1"
     inkscape:document-rotation="0"
     fit-margin-left="10"
     fit-margin-top="10"
     fit-margin-bottom="10"
     fit-margin-right="10"
     inkscape:snap-global="true"
     inkscape:snap-bbox="true" />
  <metadata
     id="metadata5">
    <rdf:RDF>
      <cc:Work
         rdf:about="">
        <dc:format>image/svg+xml</dc:format>
        <dc:type
           rdf:resource="http://purl.org/dc/dcmitype/StillImage" />
        <dc:title />
      </cc:Work>
    </rdf:RDF>
  </metadata>
  <g
     inkscape:label="Layer 1"
     inkscape:groupmode="layer"
     id="layer1"
     transform="translate(-72.13631,-20.343512)">
    <g
       id="Layer_2"
       data-name="Layer 2"
       transform="matrix(0.36771,0,0,0.36771,82.13631,37.208541)"
       style="stroke-width:1.00078866;stroke-miterlimit:4;stroke-dasharray:none;fill:#26495c;fill-opacity:1">
      <g
         id="Icons"
         style="stroke-width:1.00078866;stroke-miterlimit:4;stroke-dasharray:none;fill:#26495c;fill-opacity:1">
        <path
           class="cls-1"
           d="M 33,0 H 3 A 3,3 0 0 0 0,3 v 42 a 3,3 0 0 0 3,3 h 30 a 3,3 0 0 0 3,-3 V 3 A 3,3 0 0 0 33,0 Z M 32,44 H 4 V 4 h 28 z"
           id="path8"
           style="stroke-width:1.00078866;stroke-miterlimit:4;stroke-dasharray:none;fill:#26495c;fill-opacity:1" />
        <path
           class="cls-1"
           d="M 22.56055,13.56055 23,13.12109 V 20.5 a 1.5,1.5 0 0 0 3,0 V 9.5 A 1.49987,1.49987 0 0 0 23.43945,8.43945 l -3,3 a 1.4998442,1.4998442 0 0 0 2.1211,2.1211 z"
           id="path10"
           style="stroke-width:1.00078866;stroke-miterlimit:4;stroke-dasharray:none;fill:#26495c;fill-opacity:1" />
        <path
           class="cls-1"
           d="m 14.07422,26.11426 a 1.49692,1.49692 0 0 0 -1.63477,0.32519 l -3,3 a 1.4998442,1.4998442 0 0 0 2.1211,2.1211 L 12,31.12109 V 38.5 a 1.5,1.5 0 0 0 3,0 v -11 a 1.50016,1.50016 0 0 0 -0.92578,-1.38574 z"
           id="path12"
           style="stroke-width:1.00078866;stroke-miterlimit:4;stroke-dasharray:none;fill:#26495c;fill-opacity:1" />
        <path
           class="cls-1"
           d="m 22,40 h 3 a 3,3 0 0 0 3,-3 v -8 a 3,3 0 0 0 -3,-3 h -3 a 3,3 0 0 0 -3,3 v 8 a 3,3 0 0 0 3,3 z m 0,-11 h 3 v 8 h -3 z"
           id="path14"
           style="stroke-width:1.00078866;stroke-miterlimit:4;stroke-dasharray:none;fill:#26495c;fill-opacity:1" />
        <path
           class="cls-1"
           d="m 11,22 h 3 a 3,3 0 0 0 3,-3 V 11 A 3,3 0 0 0 14,8 h -3 a 3,3 0 0 0 -3,3 v 8 a 3,3 0 0 0 3,3 z m 0,-11 h 3 v 8 h -3 z"
           id="path16"
           style="stroke-width:1.00078866;stroke-miterlimit:4;stroke-dasharray:none;fill:#26495c;fill-opacity:1" />
      </g>
    </g>
    <path
       style="fill:none;fill-rule:evenodd;stroke:#000000;stroke-width:0.264583px;stroke-linecap:butt;stroke-linejoin:miter;stroke-opacity:1"
       d="m 171.16511,31.532431 v 0.141626"
       id="path1783"
       inkscape:connector-type="orthogonal"
       inkscape:connector-curvature="0" />
  </g>
</svg>
